…
``` r
#Creates tidy correlation matrix predictor
#Finds the top 3 correlated variables for each predictor 
#Removes identical variables and their correlation (above is 100% correlated with above)
predcorrelation %>% 
  gather("key" = "predictor2", value = "correlation", -predictor) %>% 
  filter(predictor != predictor2) %>% 
  arrange(predictor, -abs(correlation)) %>% 
  group_by(predictor) %>% 
  top_n(abs(correlation), n = 3)
```

    ## # A tibble: 165 x 3
    ## # Groups:   predictor [55]
    ##    predictor predictor2             correlation
    ##    <chr>     <chr>                        <dbl>
    ##  1 above     baths                        0.675
    ##  2 above     fireplaces                   0.646
    ##  3 above     beds                         0.630
    ##  4 AC_0      AC_1                        -1    
    ##  5 AC_0      age                          0.316
    ##  6 AC_0      condition_Below.Normal       0.278
    ##  7 AC_1      AC_0                        -1    
    ##  8 AC_1      age                         -0.316
    ##  9 AC_1      condition_Below.Normal      -0.278
    ## 10 acres     above                        0.249
    ## # … with 155 more rows
…
``` r
#Tidy table output of previous plot
categoricalfeatures %>% 
  gather(key = "features", value = "value") %>% 
  group_by(features, value) %>% 
  count(value) %>% 
  arrange(features, -n)
```

    ## Warning: attributes are not identical across measure variables;
    ## they will be dropped

    ## # A tibble: 45 x 3
    ## # Groups:   features, value [45]
    ##    features value               n
    ##    <chr>    <chr>           <int>
    ##  1 AC       1               13995
    ##  2 AC       0                1315
    ##  3 city     DES.MOINES       8257
    ##  4 city     WEST.DES.MOINES  1628
    ##  5 city     URBANDALE        1357
    ##  6 city     JOHNSTON          840
    ##  7 city     ALTOONA           816
    ##  8 city     GRIMES            670
    ##  9 city     CLIVE             395
    ## 10 city     PLEASANT.HILL     395
    ## # … with 35 more rows
…
