…
    ## Loading required package: lattice

    ## 
    ## Attaching package: 'caret'

    ## The following object is masked from 'package:purrr':
    ## 
    ##     lift

``` r
model_data
```

    ## # A tibble: 669 x 7
    ##    name  state_code type  early_career_pay mid_career_pay make_world_bett~
    ##    <chr> <chr>      <chr>            <dbl>          <dbl>            <dbl>
    ##  1 Adam~ CO         Publ~            44400          81400               56
    ##  2 Adve~ FL         Priv~            51600          89800               88
    ##  3 Agne~ GA         Priv~            46000          83600               57
    ##  4 Alab~ AL         Publ~            39800          71500               61
    ##  5 Alas~ AK         Priv~            50300          90000               67
    ##  6 Alba~ NY         Priv~            81000         144800               82
    ##  7 Albe~ CT         Priv~            49700          85900               62
    ##  8 Albi~ MI         Priv~            52100          99300               44
    ##  9 Alco~ MS         Publ~            40900          69500               67
    ## 10 Alma~ MI         Priv~            48400          89900               52
    ## # ... with 659 more rows, and 1 more variable: tuition_total <dbl>
…
