…
``` r
#Rebellious-rude do not have any numbers, also whatever and butthead take 3631896 minutes or 6.91 years to crack?
#I believe these may be outliers for how online guessing works 
```

``` r
#Looking at the hardest passwords by looking at the top 25 highest times for time to crack by online guessing
passwords %>% 
  select(password, minutes, value, time_unit) %>% 
  top_n(minutes, n = 25) %>% 
  arrange(-minutes)
```

    ## # A tibble: 60 x 4
    ##    password  minutes value time_unit
    ##    <chr>       <dbl> <dbl> <chr>    
    ##  1 trustno1 48497112 92.3  years    
    ##  2 rush2112 48497112 92.3  years    
    ##  3 jordan23 48497112 92.3  years    
    ##  4 passw0rd 48497112 92.3  years    
    ##  5 password  3631896  6.91 years    
    ##  6 baseball  3631896  6.91 years    
    ##  7 football  3631896  6.91 years    
    ##  8 jennifer  3631896  6.91 years    
    ##  9 superman  3631896  6.91 years    
    ## 10 michelle  3631896  6.91 years    
    ## # ... with 50 more rows
``` r
#Data contains popular weak passwords which makes sense however, it is odd seeding password to take 6.91 years of online guessing 
```

``` r
#Lets look at time to crack offline in seconds 
#Is this from brute force or what? 

passwords %>% 
  select(password, offline_crack_sec) %>% 
  top_n(offline_crack_sec, n = 25) %>% 
  arrange(-offline_crack_sec)
```

    ## # A tibble: 60 x 2
    ##    password offline_crack_sec
    ##    <chr>                <dbl>
    ##  1 jordan23             29.3 
    ##  2 trustno1             29.0 
    ##  3 rush2112             29.0 
    ##  4 passw0rd             29.0 
    ##  5 password              2.17
    ##  6 baseball              2.17
    ##  7 football              2.17
    ##  8 jennifer              2.17
    ##  9 superman              2.17
    ## 10 michelle              2.17
    ## # ... with 50 more rows
…
topMinutes <- passwords %>% 
  select(password, minutes) %>% 
  top_n(minutes, n = 25) %>% 
  select(password) 
  
topOffline <- passwords %>% 
   select(password, offline_crack_sec) %>% 
   top_n(offline_crack_sec, n = 25) %>% 
   select(password)

#Share the same passwords
intersect(topMinutes, topOffline)
```

    ## # A tibble: 60 x 1
    ##    password
    ##    <chr>   
    ##  1 password
    ##  2 baseball
    ##  3 football
    ##  4 jennifer
    ##  5 superman
    ##  6 trustno1
    ##  7 michelle
    ##  8 sunshine
    ##  9 starwars
    ## 10 computer
    ## # ... with 50 more rows
…
    ## Joining, by = "three"

    ## # A tibble: 35 x 2
    ##    three password 
    ##    <chr> <chr>    
    ##  1 123   123123   
    ##  2 123   123321   
    ##  3 123   1234     
    ##  4 123   12345    
    ##  5 123   123456   
    ##  6 123   1234567  
    ##  7 123   12345678 
    ##  8 123   123456789
    ##  9 123   123abc   
    ## 10 che   cheese   
    ## # ... with 25 more rows
