…
processed_df <- bake(titanic_prep, df)
processed_df <- processed_df %>% drop_na()
processed_df
```

    ## # A tibble: 886 x 8
    ##        Age Siblings.Spouse~ Parents.Childre~    Fare Survived Pclass_X2
    ##      <dbl>            <dbl>            <dbl>   <dbl> <fct>        <dbl>
    ##  1 -0.246            -0.476           -0.473 -0.490  1                0
    ##  2 -0.812            -0.476           -0.473 -0.418  0                0
    ##  3  2.23             -0.476           -0.473  0.0236 0                0
    ##  4 -0.458            -0.476           -0.473 -0.388  1                1
    ##  5 -0.0334           -0.476           -0.473 -0.459  1                0
    ##  6  0.462             0.430            2.00  -0.0920 0                1
    ##  7 -0.529            -0.476           -0.473 -0.491  0                0
    ##  8  0.250            -0.476           -0.473 -0.475  0                0
    ##  9 -0.458            -0.476           -0.473 -0.491  0                0
    ## 10 -1.02             -0.476           -0.473 -0.488  1                0
    ## # ... with 876 more rows, and 2 more variables: Pclass_X3 <dbl>, Sex_male <dbl>
