…
``` r
polls
```

    ## # A tibble: 535 x 9
    ##     rank title artist gender  year critic_name critic_rols critic_country
    ##    <dbl> <chr> <chr>  <chr>  <dbl> <chr>       <chr>       <chr>         
    ##  1     1 Term~ Publi~ male    1998 Joseph Aba~ Fat Beats   US            
    ##  2     2 4th ~ Gza f~ male    1995 Joseph Aba~ Fat Beats   US            
    ##  3     3 Pete~ Run D~ male    1986 Joseph Aba~ Fat Beats   US            
    ##  4     4 Play~ GLOBE~ male    2001 Joseph Aba~ Fat Beats   US            
    ##  5     5 Time~ O.C.   male    1994 Joseph Aba~ Fat Beats   US            
    ##  6     1 Play~ Slum ~ male    1997 Biba Adams  Critic      US            
    ##  7     2 Self~ Stop ~ mixed   1989 Biba Adams  Critic      US            
    ##  8     3 Push~ Salt-~ female  1986 Biba Adams  Critic      US            
    ##  9     4 Ambi~ 2Pac   male    1996 Biba Adams  Critic      US            
    ## 10     5 Big ~ JAY-Z~ male    1999 Biba Adams  Critic      US            
    ## # ... with 525 more rows, and 1 more variable: critic_country2 <chr>

``` r
rankings
```

    ## # A tibble: 311 x 12
    ##       ID title artist  year gender points     n    n1    n2    n3    n4
    ##    <dbl> <chr> <chr>  <dbl> <chr>   <dbl> <dbl> <dbl> <dbl> <dbl> <dbl>
    ##  1     1 Juicy The N~  1994 male      140    18     9     3     3     1
    ##  2     2 Figh~ Publi~  1989 male      100    11     7     3     1     0
    ##  3     3 Shoo~ Mobb ~  1995 male       94    13     4     5     1     1
    ##  4     4 The ~ Grand~  1982 male       90    14     5     3     1     0
    ##  5     5 Nuth~ Dr Dr~  1992 male       84    14     2     4     2     4
    ##  6     6 C.R.~ Wu-Ta~  1993 male       62    10     3     1     1     4
    ##  7     7 93 ’~ Souls~  1993 male       50     7     2     2     2     0
    ##  8     8 Pass~ The P~  1992 male       48     6     3     2     0     0
    ##  9     9 N.Y.~ Nas     1994 male       46     7     1     3     1     1
    ## 10    10 Dear~ 2Pac    1995 male       42     6     2     1     1     2
    ## # ... with 301 more rows, and 1 more variable: n5 <dbl>

``` r
polls %>% 
  count(title, sort = TRUE)
```

    ## # A tibble: 309 x 2
    ##    title                       n
    ##    <chr>                   <int>
    ##  1 Juicy                      18
    ##  2 Nuthin’ But A ‘G’ Thang    14
    ##  3 The Message                14
    ##  4 Shook Ones (Part II)       13
    ##  5 Fight The Power            11
    ##  6 C.R.E.A.M.                 10
    ##  7 93 ’Til Infinity            7
    ##  8 N.Y. State Of Mind          7
    ##  9 Dear Mama                   6
    ## 10 Jesus Walks                 6
    ## # ... with 299 more rows
…
    ## [1] 0.1551402

``` r
polls %>% 
  count(title, critic_country, name = "song_nom_country") %>% 
  add_count(title, name = "number_of_countries") %>% 
  filter(number_of_countries != 1) %>% 
  select(-number_of_countries) %>% 
  pivot_wider(names_from = "critic_country", values_from = "song_nom_country")
```

    ## # A tibble: 52 x 14
    ##    title `South Africa`    US Germany India Japan    UK `New Zealand`
    ##    <chr>          <int> <int>   <int> <int> <int> <int>         <int>
    ##  1 93 ’~              1     6      NA    NA    NA    NA            NA
    ##  2 All ~             NA     2       1    NA    NA    NA            NA
    ##  3 Alri~             NA     4      NA     1    NA    NA            NA
    ##  4 B.O.~             NA     3      NA    NA     1    NA            NA
    ##  5 Bloo~             NA    NA       1    NA    NA     1            NA
    ##  6 Boda~             NA     1      NA    NA    NA    NA             1
    ##  7 Brin~             NA     1      NA     1    NA    NA            NA
    ##  8 C.R.~             NA     7      NA    NA    NA     1             1
    ##  9 Cali~             NA     1       1    NA    NA    NA            NA
    ## 10 Can’~             NA     1       1    NA    NA    NA            NA
    ## # ... with 42 more rows, and 6 more variables: `Russian Federation` <int>,
    ## #   China <int>, Nigeria <int>, Kenya <int>, Canada <int>, Colombia <int>
…
