…
``` r
game_goals %>% 
  select(goals, player, season, game_num, age, team, opp, location,assists, shots) %>% 
  count(player)
```

    ## # A tibble: 42 x 2
    ##    player               n
    ##    <chr>            <int>
    ##  1 Alex Ovechkin     1146
    ##  2 Anze Kopitar      1067
    ##  3 Brad Marchand      745
    ##  4 Brendan Shanahan  1524
    ##  5 Brett Hull        1269
    ##  6 Corey Perry       1039
    ##  7 Dave Andreychuk   1639
    ##  8 Dino Ciccarelli   1232
    ##  9 Dustin Brown      1177
    ## 10 Eric Staal        1236
    ## # ... with 32 more rows
…
