…
``` r
#What songs appear in multiple playlist genres?
df %>% 
  select(track_name, playlist_genre) %>% 
  unique() %>% 
  count(track_name) %>% 
  filter(n > 1) %>% 
  arrange(track_name) 
```

    ## # A tibble: 2,871 x 2
    ##    track_name                                             n
    ##    <chr>                                              <int>
    ##  1 'Till I Collapse                                       3
    ##  2 $ave Dat Money (feat. Fetty Wap & Rich Homie Quan)     2
    ##  3 (No One Knows Me) Like the Piano                       2
    ##  4 ...Baby One More Time                                  2
    ##  5 ¿Cual es tu plan?                                      2
    ##  6 ¿Quien Tu Eres?                                        2
    ##  7 +                                                      2
    ##  8 <U+30AC><U+30E9><U+30B9><U+306E>PALM TREE                                      2
    ##  9 <U+30DC><U+30A4><U+30B9><U+30E1><U+30E2> No. 5                                       2
    ## 10 <U+541B><U+306E><U+30CF><U+30FC><U+30C8><U+306F><U+30DE><U+30EA><U+30F3><U+30D6><U+30EB><U+30FC>                               2
    ## # … with 2,861 more rows
``` r
#A lot of songs appear in more than 1 however only one appears in 3
```

``` r
#What about subgenres? 
df %>% 
  select(track_name, playlist_subgenre) %>% 
  unique() %>% 
  count(track_name) %>% 
  filter(n > 1) %>% 
  arrange(-n, track_name)
```

    ## # A tibble: 4,441 x 2
    ##    track_name       n
    ##    <chr>        <int>
    ##  1 Breathe         14
    ##  2 Forever         14
    ##  3 Stay            14
    ##  4 Paradise        13
    ##  5 Alive           12
    ##  6 Memories        12
    ##  7 Dance Monkey    11
    ##  8 Lost            11
    ##  9 Poison          11
    ## 10 Without You     11
    ## # … with 4,431 more rows
…
