TidyTuesdayModelEval
…
roc_auc_model %>% tidy()

## # Posterior samples of performance
## # A tibble: 12,000 x 2
##    model    posterior
##    <chr>        <dbl>
##  1 logistic     0.840
##  2 logistic     0.840
##  3 logistic     0.841
##  4 logistic     0.842
##  5 logistic     0.843
##  6 logistic     0.842
##  7 logistic     0.841
##  8 logistic     0.843
##  9 logistic     0.846
## 10 logistic     0.845
## # ... with 11,990 more rows
…
contrast_models(roc_auc_model)

## # Posterior samples of performance differences
## # A tibble: 12,000 x 4
##    difference model_1  model_2      contrast                 
##         <dbl> <chr>    <chr>        <chr>                    
##  1    0.00606 logistic randomForest logistic vs. randomForest
##  2    0.00520 logistic randomForest logistic vs. randomForest
##  3    0.00692 logistic randomForest logistic vs. randomForest
##  4    0.00720 logistic randomForest logistic vs. randomForest
##  5    0.00942 logistic randomForest logistic vs. randomForest
##  6    0.00909 logistic randomForest logistic vs. randomForest
##  7    0.00653 logistic randomForest logistic vs. randomForest
##  8    0.00563 logistic randomForest logistic vs. randomForest
##  9    0.00927 logistic randomForest logistic vs. randomForest
## 10    0.0109  logistic randomForest logistic vs. randomForest
## # ... with 11,990 more rows
…
