…
``` r
df %>% 
  select(season, episode, writer) %>% 
  unique() %>% 
  count(writer, sort = TRUE)
```

    ## # A tibble: 47 x 2
    ##    writer                            n
    ##    <chr>                         <int>
    ##  1 Mindy Kaling                     20
    ##  2 B.J. Novak                       15
    ##  3 Paul Lieberstein                 13
    ##  4 Brent Forrester                   9
    ##  5 Greg Daniels                      9
    ##  6 Justin Spitzer                    9
    ##  7 Jennifer Celotta                  8
    ##  8 Charlie Grandy                    7
    ##  9 Gene Stupnitsky;Lee Eisenberg     7
    ## 10 Michael Schur                     7
    ## # ... with 37 more rows
…
