…
``` r
library(broom)

#This seems like a lot of work and might not pan out
lm(Sale_Price~., data = ames_data) %>% tidy() %>% filter(p.value <= .05)
```

    ## # A tibble: 92 x 5
    ##    term                                    estimate std.error statistic  p.value
    ##    <chr>                                      <dbl>     <dbl>     <dbl>    <dbl>
    ##  1 MS_SubClassDuplex_All_Styles_and_Ages -18129.      4.67e+3     -3.88 1.06e- 4
    ##  2 MS_SubClassOne_Story_PUD_1946_and_Ne~ -17747.      8.53e+3     -2.08 3.77e- 2
    ##  3 MS_SubClassTwo_Story_PUD_1946_and_Ne~ -19686.      1.00e+4     -1.96 4.99e- 2
    ##  4 Lot_Area                                   0.565   7.80e-2      7.24 5.75e-13
    ##  5 StreetPave                             17897.      7.38e+3      2.43 1.53e- 2
    ##  6 Land_ContourHLS                         7625.      3.20e+3      2.38 1.74e- 2
    ##  7 Lot_ConfigCulDSac                       4119.      2.09e+3      1.97 4.90e- 2
    ##  8 Lot_ConfigFR2                          -6163.      2.69e+3     -2.29 2.19e- 2
    ##  9 Land_SlopeSev                         -25173.      7.81e+3     -3.22 1.28e- 3
    ## 10 NeighborhoodSomerset                   19101.      4.64e+3      4.11 4.01e- 5
    ## # ... with 82 more rows
…
