…
``` r
#Most caretakers are private 
```

``` r
#Let's look at tree species 
df %>% 
  select(species) %>% 
  count(species, species, sort = TRUE)
```

    ## # A tibble: 571 x 2
    ##    species                                                                     n
    ##    <chr>                                                                   <int>
    ##  1 Tree(s) ::                                                              11629
    ##  2 Platanus x hispanica :: Sycamore: London Plane                          11557
    ##  3 Metrosideros excelsa :: New Zealand Xmas Tree                            8744
    ##  4 Lophostemon confertus :: Brisbane Box                                    8581
    ##  5 Tristaniopsis laurina :: Swamp Myrtle                                    7197
    ##  6 Pittosporum undulatum :: Victorian Box                                   7122
    ##  7 Prunus cerasifera :: Cherry Plum                                         6716
    ##  8 Magnolia grandiflora :: Southern Magnolia                                6285
    ##  9 Arbutus 'Marina' :: Hybrid Strawberry Tree                               5702
    ## 10 Ficus microcarpa nitida 'Green Gem' :: Indian Laurel Fig Tree 'Green G…  5624
    ## # … with 561 more rows
…
