…
``` r
library(broom)
library(gapminder)

gapminder
```

    ## # A tibble: 1,704 x 6
    ##    country     continent  year lifeExp      pop gdpPercap
    ##    <fct>       <fct>     <int>   <dbl>    <int>     <dbl>
    ##  1 Afghanistan Asia       1952    28.8  8425333      779.
    ##  2 Afghanistan Asia       1957    30.3  9240934      821.
    ##  3 Afghanistan Asia       1962    32.0 10267083      853.
    ##  4 Afghanistan Asia       1967    34.0 11537966      836.
    ##  5 Afghanistan Asia       1972    36.1 13079460      740.
    ##  6 Afghanistan Asia       1977    38.4 14880372      786.
    ##  7 Afghanistan Asia       1982    39.9 12881816      978.
    ##  8 Afghanistan Asia       1987    40.8 13867957      852.
    ##  9 Afghanistan Asia       1992    41.7 16317921      649.
    ## 10 Afghanistan Asia       1997    41.8 22227415      635.
    ## # ... with 1,694 more rows
…
    ## # A tibble: 5 x 2
    ##   continent     n
    ##   <fct>     <int>
    ## 1 Africa      624
    ## 2 Americas    300
    ## 3 Asia        396
    ## 4 Europe      360
    ## 5 Oceania      24

``` r
gapminder %>% 
  count(country)
```

    ## # A tibble: 142 x 2
    ##    country         n
    ##    <fct>       <int>
    ##  1 Afghanistan    12
    ##  2 Albania        12
    ##  3 Algeria        12
    ##  4 Angola         12
    ##  5 Argentina      12
    ##  6 Australia      12
    ##  7 Austria        12
    ##  8 Bahrain        12
    ##  9 Bangladesh     12
    ## 10 Belgium        12
    ## # ... with 132 more rows
…
