…
``` r
gdpr_text %>% 
  select(article, sub_article) %>% 
  distinct()
```

    ## # A tibble: 425 x 2
    ##    article sub_article
    ##      <dbl>       <dbl>
    ##  1       1           1
    ##  2       1           2
    ##  3       1           3
    ##  4       2           1
    ##  5       2           2
    ##  6       2           3
    ##  7       2           4
    ##  8       3           1
    ##  9       3           2
    ## 10       3           3
    ## # ... with 415 more rows

``` r
#Key to link the violations with text
gdpr_text %>% 
  select(article, article_title, text = gdpr_text) %>% 
  distinct()
```

    ## # A tibble: 425 x 3
    ##    article article_title          text                                     
    ##      <dbl> <chr>                  <chr>                                    
    ##  1       1 Subject-matter and ob~ This Regulation lays down rules relating~
    ##  2       1 Subject-matter and ob~ This Regulation protects fundamental rig~
    ##  3       1 Subject-matter and ob~ The free movement of personal data withi~
    ##  4       2 Material scope         This Regulation applies to the processin~
    ##  5       2 Material scope         "This Regulation does not apply to the p~
    ##  6       2 Material scope         For the processing of personal data by t~
    ##  7       2 Material scope         This Regulation shall be without prejudi~
    ##  8       3 Territorial scope      This Regulation applies to the processin~
    ##  9       3 Territorial scope      "This Regulation applies to the processi~
    ## 10       3 Territorial scope      the monitoring of their behaviour as far~
    ## # ... with 415 more rows
…
``` r
gdpr_text %>% select(gdpr_text)
```

    ## # A tibble: 425 x 1
    ##    gdpr_text                                                               
    ##    <chr>                                                                   
    ##  1 This Regulation lays down rules relating to the protection of natural p~
    ##  2 This Regulation protects fundamental rights and freedoms of natural per~
    ##  3 The free movement of personal data within the Union shall be neither re~
    ##  4 This Regulation applies to the processing of personal data wholly or pa~
    ##  5 "This Regulation does not apply to the processing of personal data\nin ~
    ##  6 For the processing of personal data by the Union institutions, bodies, ~
    ##  7 This Regulation shall be without prejudice to the application of Direct~
    ##  8 This Regulation applies to the processing of personal data in the conte~
    ##  9 "This Regulation applies to the processing of personal data of data sub~
    ## 10 the monitoring of their behaviour as far as their behaviour takes place~
    ## # ... with 415 more rows
…
``` r
#Instead of topic modeling let's do something simpler and faster 
gdpr_tf <- gdbr_words %>% 
  count(article, word) %>% 
  bind_tf_idf(word, article, n) %>% 
  group_by(article) %>% 
  top_n(tf_idf, n =3) %>% 
  ungroup() %>% 
  arrange(article, -tf_idf)
gdpr_tf
```

    ## # A tibble: 347 x 6
    ##    article word           n      tf   idf tf_idf
    ##      <dbl> <chr>      <int>   <dbl> <dbl>  <dbl>
    ##  1       1 movement       2 0.0241   3.50 0.0843
    ##  2       1 free           2 0.0241   2.52 0.0606
    ##  3       1 protects       1 0.0120   4.60 0.0554
    ##  4       2 2001           2 0.00893  3.90 0.0348
    ##  5       2 filing         2 0.00893  3.90 0.0348
    ##  6       2 prevention     2 0.00893  3.90 0.0348
    ##  7       3 applies        4 0.0276   2.29 0.0632
    ##  8       3 takes          2 0.0138   3.50 0.0482
    ##  9       3 behaviour      2 0.0138   3.21 0.0443
    ## 10       4 means         30 0.0233   1.38 0.0320
    ## # ... with 337 more rows

``` r
library(tidylo)
gdpr_log <- gdbr_words %>% 
  count(article, word) %>% 
  bind_log_odds(article, word, n) %>% 
  group_by(article) %>% 
  top_n(log_odds, n = 3) %>% 
  ungroup() %>% 
  arrange(article, -log_odds)

gdpr_log
```

    ## # A tibble: 391 x 4
    ##    article word           n log_odds
    ##      <dbl> <chr>      <int>    <dbl>
    ##  1       1 movement       2    1.19 
    ##  2       1 protects       1    1.13 
    ##  3       1 connected      1    0.844
    ##  4       1 lays           1    0.844
    ##  5       1 prohibited     1    0.844
    ##  6       1 restricted     1    0.844
    ##  7       2 2001           2    1.35 
    ##  8       2 filing         2    1.35 
    ##  9       2 course         2    1.18 
    ## 10       2 system         2    1.18 
    ## # ... with 381 more rows

``` r
#What are predictions are different? 
setdiff(gdpr_tf %>% select(article, word),
gdpr_log %>% select(article, word))
```

    ## # A tibble: 89 x 2
    ##    article word        
    ##      <dbl> <chr>       
    ##  1       1 free        
    ##  2       2 prevention  
    ##  3       3 takes       
    ##  4       3 behaviour   
    ##  5       5 incompatible
    ##  6       6 processing  
    ##  7       7 withdraw    
    ##  8       7 withdrawal  
    ##  9      10 criminal    
    ## 10      10 official    
    ## # ... with 79 more rows

``` r
shared_words <- intersect(gdpr_tf %>% select(article, word, article),
gdpr_log %>% select(article, word, article)) 

shared_words
```

    ## # A tibble: 258 x 2
    ##    article word     
    ##      <dbl> <chr>    
    ##  1       1 movement 
    ##  2       1 protects 
    ##  3       2 2001     
    ##  4       2 filing   
    ##  5       3 applies  
    ##  6       4 means    
    ##  7       4 person   
    ##  8       4 natural  
    ##  9       5 purposes 
    ## 10       5 processed
    ## # ... with 248 more rows
…
